ISEI Workshop: Analisis Regresi & SEM dengan RStudio – Pengolahan Data dengan Tidyverse
…
Reverse-code variabel work_importance agar angka yang lebih tinggi secara konsisten mewakili tingkat yang lebih tinggi dari konstruk yang diukur. Dengan kata lain, 1 = Tidak penting sama sekali dan 4 = Sangat penting.

Kita bisa mencapai ini dengan mutate()! (mutate() digunakan untuk mengubah atau menambah kolom baru.)

wvs_data <- wvs_data |>
    mutate(work_importance_r = 5 - work_importance)

Pratinjau kelompok usia:

wvs_data |>
    select(work_importance_r, work_importance) |>
    print(n = 5)

# A tibble: 6,403 × 2
  work_importance_r work_importance
              <dbl>           <dbl>
1                 4               1
2                 1               4
3                 4               1
4                 2               3
5                 1               4
# ℹ 6,398 more rows
…
wvs_data <- wvs_data |>
    mutate(age_group = case_when(
        age <= 28 ~ "18-28",
        age <= 44 ~ "29-44",
        age <= 60 ~ "45-60",
        TRUE ~ "61+"
    ))

Pratinjau kelompok usia:

wvs_data |>
    select(age, age_group) |>
    print(n = 4)

# A tibble: 6,403 × 2
    age age_group
  <dbl> <chr>    
1    93 61+      
2    91 61+      
3    90 61+      
4    89 61+      
# ℹ 6,399 more rows
…
Buat kolom baru bernama satisfaction_group yang menunjukkan apakah setiap responden memiliki life_satisfaction lebih tinggi atau lebih rendah dari rata-rata

mean_satisfaction <- mean(wvs_data$life_satisfaction, na.rm = TRUE)

wvs_data |>
    mutate(satisfaction_group = if_else(
        life_satisfaction > mean_satisfaction, # kondisi yang dievaluasi
        "higher", # jika kondisi terpenuhi, lakukan ini
        "lower" # jika tidak, lakukan ini
    )) 

Analisis 2 - Berapa banyak yang memiliki life_satisfaction di bawah dan di atas rata-rata?

# A tibble: 6,403 × 15
          ID country sex    birthyear   age life_satisfaction work_importance
       <dbl> <chr>   <chr>      <dbl> <dbl>             <dbl>           <dbl>
 1 124071434 CAN     Male        1927    93                 7               1
 2 554070524 NZL     Female      1928    91                 5               4
 3 702070265 SGP     Male        1930    90                 8               1
 4 124071321 CAN     Female      1931    89                 6               3
 5 124073566 CAN     Female      1930    89                 6               4
 6 124074356 CAN     Male        1931    89                 8               4
 7 554070216 NZL     Female      1930    89                 9               2
 8 124070295 CAN     Male        1932    88                 8               1
 9 124072193 CAN     Female      1958    88                 8               4
10 554070038 NZL     Male        1931    88                10               2
# ℹ 6,393 more rows
# ℹ 8 more variables: financial_satisfaction <dbl>, religiousity <chr>,
#   political_scale <dbl>, marital_status <chr>, employment <chr>,
#   work_importance_r <dbl>, age_group <chr>, satisfaction_group <chr>
…
SGP
246
511
550
418

Bonus: Menghapus Kolom dari Dataframe

Misalkan saya memiliki kolom bernama wrong_column yang ingin dihapus:

wvs_data <- wvs_data |> mutate(wrong_column = "random values")
wvs_data |> select(country, wrong_column) |> print(n = 3)

# A tibble: 6,403 × 2
  country wrong_column 
  <chr>   <chr>        
1 CAN     random values
2 NZL     random values
3 SGP     random values
# ℹ 6,400 more rows

Hapus kolom yang salah dengan subset -:

wvs_data <- wvs_data |> 
    select(-wrong_column)

wvs_data |> select(country) |> print(n = 3)

# A tibble: 6,403 × 1
  country
  <chr>  
1 CAN    
2 NZL    
3 SGP    
# ℹ 6,400 more rows
…
