ISEI Workshop: Analisis Regresi & SEM dengan RStudio – Analisis CB-SEM: Kepuasan Pelanggan E-Commerce
…
$ CS4       <int> 4, 3, 3, 6, 4, 2, 4, 4, 3, 3, 5, 3, 4, 5, 3, 5, 3, 4, 4, 4, …

$ CL1       <int> 5, 5, 4, 4, 5, 3, 5, 4, 3, 3, 6, 3, 5, 5, 2, 4, 2, 4, 4, 4, …

$ CL2       <int> 4, 4, 4, 4, 4, 2, 4, 5, 3, 4, 4, 3, 5, 5, 3, 4, 3, 3, 4, 4, …

$ CL3       <int> 4, 4, 3, 4, 5, 2, 5, 5, 3, 4, 5, 1, 5, 5, 5, 4, 4, 3, 3, 5, …

$ RI1       <int> 4, 4, 3, 3, 4, 4, 4, 5, 3, 3, 5, 3, 5, 6, 3, 5, 2, 4, 4, 4, …

$ RI2       <int> 3, 4, 4, 4, 5, 3, 4, 5, 2, 2, 6, 3, 5, 4, 3, 4, 2, 3, 4, 6, …

$ RI3       <int> 4, 4, 3, 5, 4, 2, 3, 5, 2, 2, 6, 3, 4, 5, 3, 4, 4, 3, 4, 6, …

# A tibble: 21 × 3
   item      M    SD
   <chr> <dbl> <dbl>
 1 CL1    3.99 0.894
 2 CL2    3.96 0.949
 3 CL3    4.02 1.02 
 4 CS1    3.99 0.934
 5 CS2    3.98 0.934
 6 CS3    4.05 1.01 
 7 CS4    3.99 0.934
 8 PV1    4.02 0.964
 9 PV2    4.01 1.02 
10 PV3    4.01 1.04 
# ℹ 11 more rows
# ℹ Use `print(n = ...)` to see more rows
…
