ISEI Workshop: Analisis Regresi & SEM dengan RStudio – Analisis Regresi dan Penyajian Hasil (Versi Lengkap)
…
Outcome kita adalah variabel kontinu, tetapi untuk keperluan latihan workshop ini, mari kita definisikan outcome sebagai “Puas” jika skor life_satisfaction lebih dari 7 (inklusif), dan “Tidak Puas” jika skor kurang dari 7.

Prediktor/VI (\(X\)): political_scale

Dummy-coding Variabel Dependen

Sebelum kita melanjutkan perhitungan, kita perlu dummy code variabel dependen menjadi 1 dan 0, dengan 1 = Puas dan 0 = Tidak Puas. Info lebih lanjut tentang dummy coding di sini

# Pertama, kita perlu membuat outcome biner
wvs_cleaned <- wvs_cleaned |>
    mutate(satisfied = if_else(life_satisfaction >= 7, 1, 0))
# if_else berasal dari paket dplyr (dari sesi 2)

# A tibble: 6,403 × 2
  life_satisfaction satisfied
              <dbl>     <dbl>
1                 7         1
2                 5         0
3                 8         1
4                 6         0
5                 6         0
# ℹ 6,398 more rows
…
