Latihan Pasca-Workshop – ISEI Workshop: Analisis Regresi & SEM dengan RStudio
…
Muat paket-paket

Kode di bawah ini akan memuat paket-paket yang Anda butuhkan:

library(tidyverse)
library(car)

Muat dataset

Kode di bawah ini akan memuat dan menampilkan beberapa baris pertama dari dataset Duncan. Untuk mengetahui lebih lanjut tentang dataset ini, ketik ?Duncan di konsol RStudio Anda.

duncan <- as_tibble(Duncan)
print(duncan)

# A tibble: 45 × 4
   type  income education prestige
   <fct>  <int>     <int>    <int>
 1 prof      62        86       82
 2 prof      72        76       83
 3 prof      75        92       90
 4 prof      55        90       76
 5 prof      64        86       90
 6 prof      21        84       87
 7 prof      64        93       93
 8 prof      80       100       90
 9 wc        67        87       52
10 prof      72        86       88
# ℹ 35 more rows

Kode di bawah ini akan memuat dan menampilkan beberapa baris pertama dari dataset WVS. Untuk mengetahui lebih lanjut tentang dataset ini, ketik ?WVS di konsol RStudio Anda.

wvs <- as_tibble(WVS)
print(wvs)

# A tibble: 5,381 × 6
   poverty     religion degree country   age gender
   <ord>       <fct>    <fct>  <fct>   <int> <fct> 
 1 Too Little  yes      no     USA        44 male  
 2 About Right yes      no     USA        40 female
 3 Too Little  yes      no     USA        36 female
 4 Too Much    yes      yes    USA        25 female
 5 Too Little  yes      yes    USA        39 male  
 6 About Right yes      no     USA        80 female
 7 Too Much    yes      no     USA        48 female
 8 Too Little  yes      no     USA        32 male  
 9 Too Little  yes      no     USA        74 female
10 Too Little  yes      no     USA        30 male  
# ℹ 5,371 more rows

Soal 1

Menggunakan dataset wvs, filter kolom age untuk menyertakan nilai lebih dari 29. Kemudian, pilih kolom age, degree, religion dan poverty. Simpan hasilnya ke dataframe baru bernama wvs_filtered.

Show Answer

wvs_filtered <- wvs |> 
    filter(age > 29) |> 
    select(age, degree, religion, poverty) 

print(wvs_filtered)

# A tibble: 4,228 × 4
     age degree religion poverty    
   <int> <fct>  <fct>    <ord>      
 1    44 no     yes      Too Little 
 2    40 no     yes      About Right
 3    36 no     yes      Too Little 
 4    39 yes    yes      Too Little 
 5    80 no     yes      About Right
 6    48 no     yes      Too Much   
 7    32 no     yes      Too Little 
 8    74 no     yes      Too Little 
 9    30 no     yes      Too Little 
10    32 yes    yes      Too Little 
# ℹ 4,218 more rows

Soal 2

Perbarui dataset wvs dengan membuat versi dummy-coded dari variabel gender, di mana male = 0 dan female = 1. Simpan hasilnya di kolom baru bernama gender_coded.

Show Answer

wvs <- wvs |> 
    mutate(gender_coded = if_else(gender == "male", 0, 1)) 

print(wvs)

# A tibble: 5,381 × 7
   poverty     religion degree country   age gender gender_coded
   <ord>       <fct>    <fct>  <fct>   <int> <fct>         <dbl>
 1 Too Little  yes      no     USA        44 male              0
 2 About Right yes      no     USA        40 female            1
 3 Too Little  yes      no     USA        36 female            1
 4 Too Much    yes      yes    USA        25 female            1
 5 Too Little  yes      yes    USA        39 male              0
 6 About Right yes      no     USA        80 female            1
 7 Too Much    yes      no     USA        48 female            1
 8 Too Little  yes      no     USA        32 male              0
 9 Too Little  yes      no     USA        74 female            1
10 Too Little  yes      no     USA        30 male              0
# ℹ 5,371 more rows
…
Show Answer

wvs <- wvs |> 
    mutate(age_category = case_when(
        age < 18 ~ "youth",
        age >= 18 & age < 35 ~ "young adult",
        age >= 35 & age < 50 ~ "adult",
        age >= 50 & age < 70 ~ "senior",
        age >= 70 ~ "elderly"
    )) 

print(wvs)

# A tibble: 5,381 × 8
   poverty     religion degree country   age gender gender_coded age_category
   <ord>       <fct>    <fct>  <fct>   <int> <fct>         <dbl> <chr>       
 1 Too Little  yes      no     USA        44 male              0 adult       
 2 About Right yes      no     USA        40 female            1 adult       
 3 Too Little  yes      no     USA        36 female            1 adult       
 4 Too Much    yes      yes    USA        25 female            1 young adult 
 5 Too Little  yes      yes    USA        39 male              0 adult       
 6 About Right yes      no     USA        80 female            1 elderly     
 7 Too Much    yes      no     USA        48 female            1 adult       
 8 Too Little  yes      no     USA        32 male              0 young adult 
 9 Too Little  yes      no     USA        74 female            1 elderly     
10 Too Little  yes      no     USA        30 male              0 young adult 
# ℹ 5,371 more rows
…
